{
  "type": "service_account",
  "project_id": "check-io-enoclabs",
  "private_key_id": "eca50e038717914fcb3c54a33bbb795f193645ad",
  "private_key": "-----BEGIN PRIVATE KEY-----\nMIIEvAIBADANBgkqhkiG9w0BAQEFAASCBKYwggSiAgEAAoIBAQDBWrluP8oDSsUH\n/NTTM2g+ITxPT5CUg6Rjcv15GfaHWzk6bO1tP3tuLCEoQ35mDS02E6vvuWBZRd8G\nvpqw6mYJknFMEjVFc1ZSCRa6UhZNcrqn09ywfTxteyO+99HWzgYL1QPRdnshK9LQ\nmiX7tf1daKzVjRaHyJotISc69qsB3KnI/zde6W2e7AUHiVR7qLyajauF77/qIlj9\ntSOVSIYBcbVi/CtNys9uFo1Tk0wPH2RrOIN90+keDftQtLA3hXVCHfnBa+YgC+nf\nguhMawlq8FSanAVo0/dRxR3YzE/dFCrB2GqfXQu3bVru3miU/LbPF2MwBTi3kZX7\nOxk5zRaDAgMBAAECggEALD1o3gvkWdp6uHgl7ej+OfD6zp7C0uhH7aU6z8GcAZ5i\nurZ/oJZ81FlugLroqcrsBEp99YyxudtdyzpDRKVtEVWbbK9h1vEr1/tSYvEzPyc4\nA/xaq1sMP3SEWkZzkbVz9rMXe46jX5SaWLZcaHpcbUns+bOdaxYACMFkK36S5ArG\nJDt8m46V9eG50ULXZeaPdg84qHFIAH9hdJSY8B6sQAQ7rB6HP9LDj9LYhps8cn63\n1UCGu73bktVvG+Hfndy2gVnfPE/+H8iU8iW8F0aOaV3LyS/dzMZmMWqeLW+AjxPk\n2hPlVeishGv1nZtttc+TfIKNRTbi2477pWxon+Od2QKBgQDsLDrA5vGlcy8Qtulh\noQKhFsT6ncu4r6CHKE18It8yDJHfRLGMsjhXVsEek88oqif6447nBXQXWHlj4dn/\nPNQohLW5X/655bASMPjGIRNbPtlW5mhUBUx4k6acj4IXtMR/X2LMoSc1MGZ+9ksP\nMMbYvloWMe2zIOF2UF6qPbN0XQKBgQDRlkCMIficEKHvF004yXDNKL4TrRanKom1\nOJPLWtu02PPrNrf2MzEH1JLneiHQOPN64D6v8fh5nYuuRTtujiQSKdyJ0py+9/yI\nO05+45xITYORkWFYOdotU+XvJWAJtfPsf8KJw/5PuPSOm0Hf3ccdLjBJbayUUIGZ\nGJ5KEboIXwKBgBRAprksFMTPX9XbGaBZolQWE8Y6CeJIjUeJ2Tsv8lvkYA35YhBi\nqBo1QlJQ8o7WKJ+HLBX7jb0CxUYfdAZDPR5MYxkGdl2SqMqmkG7NH0/Pz+t3zrKF\n0cz1PHBojgtiYQdbMqnBmA8jm2Z/0Gf5EtQ7XpZQqcWWqD7xHW0T5XOxAoGAZT35\njDfUyj7WmpJdATN9w/0MZKDWMoY/40SjUDZhr2il21ehYdK0up2bISpELztzkkXE\nwmVWrBjIorRa0zrifcuu9vzALxfH618KugzlL6ASED10EpRPqlm+1tjtHYPBgtrs\ndHQy4vvrVv/0wFl3l8b6GF5cYYDKOdREkm8huG0CgYAgqlCQdlttIIQL06240idC\nVzyRFt+cHV8NrvZpFw4xWzVQN1UEJFj9/By1f9ngYLqXs6hAtaQgCJzm+N7VR46o\nHoPJnZlCC5sCSYajR1z4oXqkhgu0/G5QY8Jr065PMmTa/WVftF/NzThuGXZBrrAr\nuzDHCEqzg3C2rzEiki/7bQ==\n-----END PRIVATE KEY-----\n",
  "client_email": "firebase-adminsdk-nfeln@check-io-enoclabs.iam.gserviceaccount.com",
  "client_id": "109231549518833557867",
  "auth_uri": "https://accounts.google.com/o/oauth2/auth",
  "token_uri": "https://oauth2.googleapis.com/token",
  "auth_provider_x509_cert_url": "https://www.googleapis.com/oauth2/v1/certs",
  "client_x509_cert_url": "https://www.googleapis.com/robot/v1/metadata/x509/firebase-adminsdk-nfeln%40check-io-enoclabs.iam.gserviceaccount.com",
  "universe_domain": "googleapis.com"
}
